\relax 
\providecommand\hyper@newdestlabel[2]{}
\providecommand\HyperFirstAtBeginDocument{\AtBeginDocument}
\HyperFirstAtBeginDocument{\ifx\hyper@anchor\@undefined
\global\let\oldcontentsline\contentsline
\gdef\contentsline#1#2#3#4{\oldcontentsline{#1}{#2}{#3}}
\global\let\oldnewlabel\newlabel
\gdef\newlabel#1#2{\newlabelxx{#1}#2}
\gdef\newlabelxx#1#2#3#4#5#6{\oldnewlabel{#1}{{#2}{#3}}}
\AtEndDocument{\ifx\hyper@anchor\@undefined
\let\contentsline\oldcontentsline
\let\newlabel\oldnewlabel
\fi}
\fi}
\global\let\hyper@last\relax 
\gdef\HyperFirstAtBeginDocument#1{#1}
\providecommand\HyField@AuxAddToFields[1]{}
\providecommand\HyField@AuxAddToCoFields[2]{}
\select@language{english}
\@writefile{toc}{\select@language{english}}
\@writefile{lof}{\select@language{english}}
\@writefile{lot}{\select@language{english}}
\newlabel{first}{{0.1}{1}{}{equation.0.1}{}}
\newlabel{eq:potent}{{0.2}{1}{}{equation.0.2}{}}
\@writefile{lof}{\contentsline {figure}{\numberline {1}{\ignorespaces Polar coordinate from the point P\relax }}{2}{figure.caption.1}}
\providecommand*\caption@xref[2]{\@setref\relax\@undefined{#1}}
\newlabel{fig}{{1}{2}{Polar coordinate from the point P\relax }{figure.caption.1}{}}
\@writefile{lof}{\contentsline {figure}{\numberline {2}{\ignorespaces Projection of P,M,C in the xz plane\relax }}{2}{figure.caption.2}}
\newlabel{fig2}{{2}{2}{Projection of P,M,C in the xz plane\relax }{figure.caption.2}{}}
\newlabel{one}{{0.3}{2}{}{equation.0.3}{}}
\newlabel{two}{{0.4}{3}{}{equation.0.4}{}}
\newlabel{three}{{0.5}{3}{}{equation.0.5}{}}
\newlabel{four}{{0.6}{3}{}{equation.0.6}{}}
